type renderProps = {@as("open") open_: bool, disabled: bool}
@module("@headlessui/react") @react.component
external make: (
  @as("as") ~as_: 'asType=?,
  ~disabled: bool=?,
  ~value: 'value=?,
  ~onChange: 'value => unit=?,
  ~horizontal: bool=?,
  ~className: string=?,
  ~children: React.element,
) => React.element = "Listbox"

module Button = {
  type renderProps = {@as("open") open_: bool, disabled: bool}
  @module("@headlessui/react") @react.component @scope("Listbox")
  external make: (
    @as("as") ~as_: 'asType=?,
    ~className: string=?,
    ~children: React.element,
  ) => React.element = "Button"
}

module Label = {
  type renderProps = {@as("open") open_: bool, disabled: bool}
  @module("@headlessui/react") @react.component @scope("Listbox")
  external make: (
    @as("as") ~as_: 'asType=?,
    ~className: string=?,
    ~children: renderProps => React.element,
  ) => React.element = "Label"
}

module Options = {
  type renderProps = {@as("open") open_: bool}
  @module("@headlessui/react") @react.component @scope("Listbox")
  external make: (
    @as("as") ~as_: 'asType=?,
    ~static: bool=?,
    ~unmount: bool=?,
    ~className: string=?,
    ~children: React.element,
  ) => React.element = "Options"
}

module Option = {
  type renderProps = {active: bool, selected: bool, disabled: bool}
  @module("@headlessui/react") @react.component @scope("Listbox")
  external make: (
    @as("as") ~as_: 'asType=?,
    ~value: 'value=?,
    ~disabled: bool=?,
    ~className: renderProps => string=?,
    ~children: renderProps => React.element,
  ) => React.element = "Option"
}
