type renderProps = {@as("open") open_: bool, close: bool}
@module("@headlessui/react") @react.component
external make: (
  @as("as") ~as_: 'asType=?,
  ~className: string=?,
  ~children: renderProps => React.element,
) => React.element = "Popover"

module Overlay = {
  type renderProps = {@as("open") open_: bool}
  @module("@headlessui/react") @react.component @scope("Popover")
  external make: (
    @as("as") ~as_: 'asType=?,
    ~className: string=?,
    ~children: renderProps => React.element,
  ) => React.element = "Overlay"
}

module Button = {
  type renderProps = {@as("open") open_: bool}
  @module("@headlessui/react") @react.component @scope("Popover")
  external make: (
    @as("as") ~as_: 'asType=?,
    ~className: string=?,
    ~children: renderProps => React.element,
  ) => React.element = "Button"
}

module Panel = {
  type renderProps = {@as("open") open_: bool, close: bool}
  @module("@headlessui/react") @react.component @scope("Popover")
  external make: (
    @as("as") ~as_: 'asType=?,
    ~focus: bool=?,
    ~static: bool=?,
    ~unmount: bool=?,
    ~className: string=?,
    ~children: renderProps => React.element,
  ) => React.element = "Panel"
}

module Group = {
  @module("@headlessui/react") @react.component @scope("Popover")
  external make: (
    @as("as") ~as_: 'asType=?,
    ~className: string=?,
    ~children: 'children,
  ) => React.element = "Group"
}
